{
  "version": "1.0",
  "defaultProvider": "unpkg",
  "libraries": [
    {
      "library": "bootstrap@4.3.1",
      "destination": "wwwroot/lib/bootstrap"
    },
    {
      "provider": "cdnjs",
      "library": "jquery@3.4.1",
      "destination": "wwwroot/lib/jquery/"
    },
    {
      "provider": "cdnjs",
      "library": "jquery.form@4.2.2",
      "destination": "wwwroot/lib/jquery/jquery.form/"
    },
    {
      "provider": "cdnjs",
      "library": "bootstrap-datetimepicker@4.17.47",
      "destination": "wwwroot/lib/bootstrap/bootstrap-datetimepicker/"
    },
    {
      "provider": "cdnjs",
      "library": "moment.js@2.24.0",
      "destination": "wwwroot/lib/moment.js/"
    },
    {
      "provider": "cdnjs",
      "library": "popper.js@1.15.0",
      "destination": "wwwroot/lib/popper/"
    }
  ]
}